%YAML 1.1
%TAG !u! tag:unity3d.com,2011:
--- !u!1045 &1
EditorBuildSettings:
  m_ObjectHideFlags: 0
  serializedVersion: 2
  m_Scenes:
  - enabled: 1
    path: Assets/_SlimeProject/Jared's Stuff/Jared's Scene/Jared's Scene.unity
    guid: 93dd9d293c641d949a73cf8127452fb3
